Date;Notifier;H;M;R;L;Domain;OS;View
14/04/2013;Dr.SHA6H;H;;R;China;www.cgjsw.gov.cn;Win 2003;
14/04/2013;[IN]SecInjection;H;;R;United States;www.camaraalfredovasconcelos.m...;Linux;
13/04/2013;H3ll-dz;H;;R;Colombia;www.promotoradeviviendaderisar...;Linux;
13/04/2013;ghost-dz;;M;R;Kenya;www.nationalheritage.go.ke/gh....;Linux;
13/04/2013;ghost-dz;;M;R;Kenya;www.crd.go.ke/gh.html;Linux;
13/04/2013;Evil-DZ;H;;R;Thailand;tsn.sukhothai1.go.th;Win 2008;
13/04/2013;HaCker-1420;H;M;;Spain;siataragua.gob.ve;Linux;
13/04/2013;HaCker-1420;H;M;;Spain;contraloriadeurbaneja.lecheria...;Linux;
13/04/2013;Maxney;;M;;Taiwan;peripheral.psn.gigabyte.com/in...;Win 2003;
13/04/2013;Maxney;;M;;Taiwan;gcenter.gigabyte.com/index.html;Win 2003;
13/04/2013;Maxney;H;M;;Taiwan;websys.gigabyte.com;Win 2003;
13/04/2013;Maxney;;;;Taiwan;nbstk.gigabyte.com/index.htm;Win 2003;
13/04/2013;Dr.SHA6H;H;M;;Italy;www.comune.acquafondata.fr.it;Linux;
13/04/2013;Dr.SHA6H;H;M;;Italy;www.workinprogress.comune.cerv...;Linux;
13/04/2013;Iranian_Dark_Coders_Team;;M;R;Thailand;nesto.nesdb.go.th/Black-index....;Win 2008;
13/04/2013;Iranian_Dark_Coders_Team;H;M;R;Thailand;icquestionare.nesdb.go.th;Win 2008;
13/04/2013;Iranian_Dark_Coders_Team;;M;R;Thailand;ic.nesdb.go.th/index.html;Win 2008;
13/04/2013;Iranian_Dark_Coders_Team;;M;;Thailand;ce.nesdb.go.th/index.html;Win 2008;
13/04/2013;Iranian_Dark_Coders_Team;;;R;Thailand;cm.nesdb.go.th/Black-index.html;Win 2008;
13/04/2013;wolf-sy-hacke;H;M;;United States;predialenlinea.valledupar.gov.co;Linux;
13/04/2013;wolf-sy-hacke;H;M;;United States;vur.valledupar.gov.co;Linux;
13/04/2013;syrian_dragon;;M;;Iran;mehr.pardis-ntoir.gov.ir/x.txt;Win 2008;
13/04/2013;syrian_dragon;;;;Iran;www.sabtsemnan.gov.ir/x.txt;Win 2008;
13/04/2013;Rires walid;H;M;R;Spain;fundapatrimonio.gov.ve;Linux;
13/04/2013;Rires walid;H;M;R;Spain;fundapatrimonio.gob.ve;Linux;
13/04/2013;Rires walid;H;M;;Spain;fundalanavial.gob.ve;Linux;
13/04/2013;Rires walid;H;M;;Spain;cmgrdcucuta.gov.co;Linux;
13/04/2013;SA3D HaCk3D;;;R;Indonesia;penanggulangankrisis.depkes.go...;Linux;
13/04/2013;syrian_dragon;;M;;Iran;plan.moc.gov.ir/x.txt;Win 2003;
13/04/2013;syrian_dragon;;;;Iran;afact2012.mimt.gov.ir/x.txt;Win 2003;
13/04/2013;hacker-1420;;M;R;Spain;www.maderasdelalba.gob.ve//rob...;Linux;
13/04/2013;hacker-1420;H;;;Spain;fundacredesa.gob.ve;Linux;
13/04/2013;hacker-1420;;;;Spain;hospitalaguablanca.gob.ve/inde...;Linux;
13/04/2013;hacker-1420;H;;R;Spain;clecojedes.gob.ve;Linux;
13/04/2013;Dr.SHA6H;H;;R;Italy;www.comune.cervaro.fr.it;Linux;
13/04/2013;HighTech;H;;R;Brazil;www.crbio01.gov.br;Win 2003;
12/04/2013;Gomina7;H;;R;Thailand;nphanom.nfe.go.th;Win 2003;
12/04/2013;calco;H;;R;United States;www.comalcalco.gob.mx;Linux;
12/04/2013;islamic ghosts team;H;;R;Turkey;www.sahinbeymuftulugu.gov.tr;Linux;
12/04/2013;HiLV@NLi;;;;Turkey;www.erzurumsodes.gov.tr/Defaul...;Unknown;
12/04/2013;1923Turk;;;;China;www.huaihua.jcy.gov.cn/aL_Pars...;Win 2003;
12/04/2013;Barbaros-DZ;H;;;China;lhx.fangcheng.gov.cn;Win 2003;
12/04/2013;Xr0b0t;H;;;United States;dprd-laburakab.go.id;Linux;
12/04/2013;busabos;H;;R;United States;www.cityofsanfernando.gov.ph;Linux;
12/04/2013;Athen3a;H;M;;United States;hospitalneyarias.gov.do;Linux;
12/04/2013;Over-X;H;M;R;Romania;www.avg-antivirus.ro;Linux;
12/04/2013;Hmei7;;M;;Viet Nam;chuse.gialai.gov.vn/images/x.txt;Unknown;
12/04/2013;مستر هزام;;M;R;Mexico;dif.pue.gob.mx/programas_files...;Unknown;
12/04/2013;Sh4d0w_h4x0r;;M;;United States;www.safe2013.dpcr.pnp.gov.ph/i...;Linux;
12/04/2013;behace;H;M;;Indonesia;bagianhukum.landakkab.go.id;Linux;
12/04/2013;THE-AjaN;H;;;Bosnia and Herzegovina;www.azlp.gov.ba;Linux;
12/04/2013;V1RU54;H;M;;Indonesia;prakom.depsos.go.id;Linux;
12/04/2013;Nob0dy;H;;;Ukraine;lviv.dabi.gov.ua;Linux;
12/04/2013;syrian_dragon;;;R;Lebanon;www.ghalboun.gov.lb/forms/x.txt;Win 2003;
12/04/2013;Barbaros-DZ;H;;R;China;www.ztjgdj.gov.cn;Unknown;
12/04/2013;Aßdøù SÿkRìt;H;;R;United States;munibagua.gob.pe;Linux;
12/04/2013;Sejeal;;M;R;United States;www.amaraji.pe.gov.br/sejeal.jpg;Unknown;
12/04/2013;DexmoD;;;;China;www.hefei-stip.gov.cn/news.php...;Linux;
12/04/2013;Hmei7;;;R;Venezuela;www.chacao.gob.ve/images/x.txt;Linux;
12/04/2013;Micky;;M;;Brazil;blogsti.coc.fiocruz.br/index.html;Linux;
12/04/2013;syrian_dragon;;;R;Lebanon;www.bdl.gov.lb/_private/notfou...;Win 2003;
12/04/2013;c.s.eye;;;;United States;projects.atlas.ca.gov/develope...;Linux;
12/04/2013;mustireiS;H;;R;United States;www.pader.go.ug;Linux;
12/04/2013;sahrawihacker;H;;;Turkey;www.boluab.gov.tr;Unknown;
12/04/2013;卖切糕的小士官;;;;China;www.zwfw.gov.cn/2.txt;Unknown;
12/04/2013;LaLaLasto;;;R;United States;www.isc.gob.mx/imagenes/direct...;Linux;
12/04/2013;HighTech;H;M;;United States;communications.eac.int;Linux;
12/04/2013;Maxney;;;;Australia;www.apec.acer.com.au/index.htm;Unknown;
12/04/2013;SaccaFrazi;;;R;Italy;www.comune.sancipirello.pa.it/...;Win 2003;
12/04/2013;AHT-CREW;;M;R;Turkey;www.ipekyolu.gov.tr/ipekyolu/i...;Linux;
12/04/2013;chinahacker;;;;China;www.gxch.gov.cn/dhthacker.com.htm;Win 2008;
12/04/2013;SQL_master;H;;R;Germany;www.rats.gov.ma;Linux;
12/04/2013;SA3D HaCk3D;;;;Chile;gobtransparente.jac.gob.cl/x.txt;Win 2003;
12/04/2013;W3bimmob Security;;;R;Philippines;www.pids.gov.ph/erbl/file.php?...;Linux;
12/04/2013;Anonymous;H;M;;Turkey;arge.hgm.gov.tr;Linux;
12/04/2013;Anonymous;H;;;Turkey;emissions.udhb.gov.tr;Linux;
12/04/2013;SecurityBus;;M;R;Ecuador;www.drogasinfo.gob.ec/bibliote...;Linux;
12/04/2013;MoroccanHunters;H;M;;South Africa;www.merafong.gov.za;Win 2003;
12/04/2013;Hmei7;;;R;Indonesia;www.plazainformasi.jogjaprov.g...;Linux;
12/04/2013;RieqyNS13;;;;Indonesia;bppsdmk.depkes.go.id/bbpkjakar...;Linux;
12/04/2013;AL.MaX HaCkEr;;M;;Cambodia;kandal.cambodia.gov.kh//old/se...;Linux;
12/04/2013;Hmei7;;;;Indonesia;litbang.magelangkota.go.id/ima...;Linux;
12/04/2013;AL.MaX HaCkEr;;;R;Brazil;www.ppgci.ufrj.br/phocadownloa...;Linux;
12/04/2013;AL.MaX HaCkEr;;;;Cambodia;mlvt.gov.kh/index.php/en/;Linux;
12/04/2013;ymh;;;;Taiwan;www.yenchao.gov.tw/people/;Win 2003;
12/04/2013;TUNOVATO;;M;;Paraguay;inan.gov.py/newweb/;Linux;
12/04/2013;HACKROOT;;;;Indonesia;probolinggo.dinkesjatim.go.id/...;Linux;
12/04/2013;ifactoryx;;M;R;Turkey;www.yalovaadsm.gov.tr/tumresim...;Win 2003;
12/04/2013;ifactoryx;;M;R;Turkey;www.keciorenosmanliadsm.gov.tr...;Win 2003;
12/04/2013;ifactoryx;;M;R;Turkey;www.alsancakdis.gov.tr/tumresi...;Win 2003;
12/04/2013;ifactoryx;;M;R;Turkey;www.adanaadsm.gov.tr/tumresim/...;Win 2003;
12/04/2013;ifactoryx;;M;R;Turkey;www.canakkaleadsm.gov.tr/tumre...;Win 2003;
12/04/2013;ifactoryx;;M;R;Turkey;www.tokatagizdis.gov.tr/tumres...;Win 2003;
12/04/2013;ifactoryx;;M;R;Turkey;www.gungorenadsm.gov.tr/tumres...;Win 2003;
12/04/2013;ifactoryx;;;R;Turkey;amasyaagizdis.gov.tr/tumresim/...;Win 2003;
12/04/2013;ifactoryx;;M;R;Turkey;www.malatyaadsm.gov.tr/tumresi...;Win 2003;
12/04/2013;ifactoryx;;M;R;Turkey;www.karamanadsm.gov.tr/tumresi...;Win 2003;
12/04/2013;ifactoryx;;M;R;Turkey;agriadsm.gov.tr/tumresim/x.txt;Win 2003;
12/04/2013;ifactoryx;;;R;Turkey;www.aksarayadsm.gov.tr/tumresi...;Win 2003;
12/04/2013;HighTech;;;R;Maldives;juvenilecourt.gov.mv/media/xk.txt;Linux;
12/04/2013;HighTech;;;;Italy;www.comuneguardiasanframondi.g...;Linux;
12/04/2013;y7lmoon511;H;M;;Bolivia;www.concejomunicipalscz.gob.bo;Win 2003;
12/04/2013;BarrabravaZ;H;M;;Indonesia;bcpekalongan.beacukai.go.id;Linux;
12/04/2013;Cloning;;M;R;Thailand;www.prachuap.go.th/aboutus/unl...;Linux;
12/04/2013;Cloning;;M;R;Thailand;www.kohlak.go.th/admin/unlimit...;Linux;
12/04/2013;team hackers of iraq;;M;R;United States;www.tourism.gov.iq/index3.php;Linux;
12/04/2013;[IN]SecInjection;;;R;China;fgj.zjjcl.gov.cn/r.txt;Win 2003;
11/04/2013;Hannibal;H;;R;Malaysia;www.aalco.int;Win 2008;
11/04/2013;BarrabravaZ;H;M;;Indonesia;kpu-kotawaringinbaratkab.go.id;Linux;
11/04/2013;BarrabravaZ;H;M;;Indonesia;kpu-katingankab.go.id;Linux;
11/04/2013;BarrabravaZ;H;;;Indonesia;kpu-barselkab.go.id;Linux;
11/04/2013;Ashiyane Digital Security Team;;;R;Thailand;www.krabi-khodin.go.th/index.php;Linux;
11/04/2013;Q8 Spy;;M;R;United Kingdom;www.sonypictures.in/xml_gal/;Linux;
11/04/2013;S4V4S;;M;;China;www.yccgxzzfj.gov.cn/s4v4s.html;Win 2003;
11/04/2013;Barbaros-DZ;H;;R;China;rzjzpx.smeqd.gov.cn;Win 2003;
11/04/2013;مستر هزام;H;;;United States;www.chiltepec.gob.mx;Linux;
11/04/2013;THE-AjaN;;;R;India;www.sikkim-culture.gov.in/Home...;Win 2008;
11/04/2013;THE-AjaN;;;;Bosnia and Herzegovina;www.mod.gov.ba/en/default.asp;Win 2003;
11/04/2013;islamic ghosts team;H;M;;Panama;tribunaldecuentas.gob.pa;Linux;
11/04/2013;HighTech;;M;;Italy;tributi.comune.anzio.roma.it/h...;Win 2003;
11/04/2013;HighTech;H;;;China;dzjc.laiwu.gov.cn;Win 2003;
11/04/2013;Hmei7;;M;;Italy;www.comune.terres.tn.it/x.txt;FreeBSD;
11/04/2013;HighTech;;;;Sri Lanka;www.treasury.gov.lk/ck.htm;Linux;
11/04/2013;Mugair;H;;;Ecuador;www.mecn.gob.ec;Linux;
11/04/2013;3xp1r3;H;M;;Romania;stagii.gov.md;Linux;
11/04/2013;3xp1r3;H;M;;Romania;it.gov.md;Linux;
11/04/2013;3xp1r3;H;M;;Romania;ti.gov.md;Linux;
11/04/2013;HighTech;H;M;;Argentina;pruebas.deseado.gov.ar;Linux;
11/04/2013;HighTech;H;M;;Argentina;artesanos.deseado.gov.ar;Linux;
11/04/2013;HighTech;H;M;;Argentina;empleos.deseado.gov.ar;Linux;
11/04/2013;HighTech;H;M;;Argentina;museo.deseado.gov.ar;Linux;
11/04/2013;HighTech;H;M;;Argentina;www.turismo.deseado.gov.ar;Linux;
11/04/2013;HighTech;H;M;;Argentina;www.defensacivilmpd.deseado.go...;Linux;
11/04/2013;HighTech;H;M;;Argentina;hcd.deseado.gov.ar;Linux;
11/04/2013;HighTech;H;M;;Argentina;prensadeporte.deseado.gov.ar;Linux;
11/04/2013;HighTech;H;M;;Argentina;www.prensadesarrollohumano.des...;Linux;
11/04/2013;HighTech;H;M;;Argentina;www.prensainspecciongeneral.de...;Linux;
11/04/2013;HighTech;H;M;;Argentina;www.prensatransito.deseado.gov.ar;Linux;
11/04/2013;CrashBandicot69;;M;R;Argentina;www.cmagistratura.gba.gov.ar/_...;Linux;
11/04/2013;CrashBandicot69;;M;;Argentina;www.vamosalaplaya.gov.ar/wp-co...;Linux;
11/04/2013;CrashBandicot69;;;;Argentina;www.ayudasiape.gba.gov.ar/hesk...;Linux;
11/04/2013;CrashBandicot69;;M;R;Argentina;www.prensa.gba.gov.ar/extras2k12/;Linux;
11/04/2013;CrashBandicot69;;M;;Argentina;www.bsasintegracion.gba.gov.ar...;Linux;
11/04/2013;CrashBandicot69;;;;Argentina;www.gba.gov.ar/eventos/;Linux;
11/04/2013;CrashBandicot69;;M;R;Argentina;www.dpbs.sg.gba.gov.ar/compone...;Linux;
11/04/2013;ghost-dz;;;;Romania;arhiva.gov.md/gh.html;Linux;
11/04/2013;0KaL;;;;Brazil;www.sefaz.mt.gov.br/portal/;Linux;
11/04/2013;ulow lamer >.<;;M;;China;gsv.0551.gov.cn/a.htm;Win 2003;
11/04/2013;ymh;;;;Taiwan;www.khm.gov.tw/yemen.htm;Win 2003;
11/04/2013;Sa-Dz;H;M;;Italy;www.comune.roccapia.aq.it;Linux;
11/04/2013;düƒƒ;;;R;Mexico;www.sanfrancisco.gob.mx/princi...;Linux;
11/04/2013;By-m1cr0p;H;M;;Turkey;www.sivashekimevi.gov.tr;Unknown;
11/04/2013;antisec;H;;;United States;www.ussc.gov;Win 2008;
11/04/2013;Barbaros-DZ;H;;;China;wsj.shiyan.gov.cn;Win 2003;
11/04/2013;Hmei7;;M;;Netherlands;www.matteodellacorte.gov.it/x.txt;Win 2008;
11/04/2013;H4ksniper;H;M;;Indonesia;rsuhaji.jatimprov.go.id;Linux;
11/04/2013;Hmei7;;M;R;Madagascar;www.mtpc.gov.mg/images/x.txt;Unknown;
11/04/2013;HighTech;;M;;Spain;cpfcoparada.juntaextremadura.n...;Linux;
11/04/2013;HighTech;H;M;;Pakistan;www.socialwelfare.ajk.gov.pk;Win 2003;
11/04/2013;Sa-Dz;H;M;;Brazil;lvsouza.ufpa.br;Linux;
11/04/2013;Over-X;H;;;United States;bioinf.itmat.upenn.edu;Linux;
11/04/2013;TeaM MosTa;;;R;Peru;www.senasa.gob.pe/dz.htm;Win 2003;
11/04/2013;AHT-CREW;;M;;United States;tekirdagsgk.gov.tr/security/;Linux;
11/04/2013;Dr.SHA6H;;M;;Australia;tin.uqp.uq.edu.au/index.html;Win 2003;
11/04/2013;HighTech;;M;;Italy;www.comune.anzio.roma.it/ht.txt;Win 2003;
11/04/2013;Sa-Dz;;M;;Brazil;barrosbarreto.ufpa.br/template...;Linux;
11/04/2013;AL.MaX HaCkEr;;;R;France;www.oned.gouv.fr/x.htm;Linux;
11/04/2013;HacKed By LaMiN3 DK;;M;;Mexico;indemun.hidalgo.gob.mx/images/...;Linux;
11/04/2013;Barbaros-DZ;H;;R;China;pj.lnzxw.gov.cn;F5 Big-IP;
11/04/2013;HighTech;;M;;Pakistan;akmidc.ajk.gov.pk/xk.txt;Win 2003;
11/04/2013;好狗-404渗透小组;H;;;China;www.fsgaj.gov.cn;Win 2008;
11/04/2013;TeaM MosTa;;;;Viet Nam;tamthantw2.gov.vn/default.asp;Win 2003;
11/04/2013;DZ27;H;M;;Brazil;www.iedaguedes.ufpa.br;Linux;
11/04/2013;islamic ghosts team;;;;New Caledonia;www.ford.nc/images/;Linux;
11/04/2013;Fatal Error;H;;R;Canada;www.m1.cust.educ.ubc.ca;Unknown;
11/04/2013;Digital Boys Underground Team;;;;Russian Federation;20years.mcdonalds.ru/cache_htm...;Linux;
11/04/2013;S:6T_i-#07;H;M;R;Bangladesh;www.dot.gov.bd;Linux;
10/04/2013;ghost-dz;;M;R;Kenya;www.youthaffairs.go.ke/gh.html;Linux;
10/04/2013;ghost-dz;;M;;Kenya;www.nita.go.ke/gh.html;Linux;
10/04/2013;ghost-dz;;M;R;Kenya;www.monitoring.go.ke/gh.html;Linux;
10/04/2013;ghost-dz;;M;R;Kenya;www.mirp.go.ke/gh.html;Linux;
10/04/2013;ghost-dz;;M;R;Kenya;treasury.go.ke/gh.html;Linux;
10/04/2013;Hmei7;;;R;Ethiopia;www.csa.gov.et/indonesia.htm;Win 2003;
10/04/2013;BADI;H;M;;Canada;munichiara.gob.pe;Linux;
10/04/2013;sahrawihacker;;M;;Mexico;www.cruzroja.sep.gob.mx/index.htm;Solaris 9/10;
10/04/2013;sahrawihacker;;M;;Mexico;desnomina.sep.gob.mx/index.htm;Solaris 9/10;
10/04/2013;sahrawihacker;;;;Mexico;www.controlescolar.sep.gob.mx/...;Solaris 9/10;
10/04/2013;Bilal TàyĻer;H;M;;France;www.mairie-monnieres.fr;Linux;
10/04/2013;HighTech;;M;;Argentina;www.laplata.gob.ar/datos.php;Linux;
10/04/2013;HighTech;;;;Argentina;www.laplata.gov.ar/datos.php;Linux;
10/04/2013;ghost-dz;;;R;Argentina;www.estadiolp.gba.gov.ar/v3/gh...;Linux;
10/04/2013;Anonymous Albania;H;;;United States;www.hops.gov.ba;Linux;
10/04/2013;Aerul Da White-Hkc;H;;R;United States;www.mamujukab.go.id;Linux;
09/04/2013;Nabilaholic404;H;;;Indonesia;dprd-ambonkota.go.id;Linux;
09/04/2013;brwsk007;;;R;China;ganbu.zsdj.gov.cn/505.txt;Win 2003;
09/04/2013;Black-virus;H;M;;Canada;concejotumaco.gov.co;Linux;
09/04/2013;POmAK;;M;;Italy;www.comune.villanova-mondovi.c...;Linux;
09/04/2013;POmAK;;M;;Italy;www.comune.roccafortemondovi.c...;Linux;
09/04/2013;POmAK;;M;;Italy;www.comune.frabosasoprana.cn.i...;Linux;
09/04/2013;POmAK;;M;;Italy;www.comune.montaldodimondovi.c...;Linux;
09/04/2013;POmAK;;M;;Italy;www.comune.briaglia.cn.it/imag...;Linux;
09/04/2013;Hmei7;;;R;Malaysia;www.perlis.gov.my/images/x.txt;Linux;
09/04/2013;Bozkurt97;H;M;;Italy;www.ville-dolus-oleron.fr;Linux;
09/04/2013;ulow;;;;China;www.scyx.gov.cn/a.htm;Win 2003;
09/04/2013;Barbaros-DZ;H;;;China;www.txsz.gov.cn;Unknown;
09/04/2013;Dark Assassins Cyber Crew;H;M;;Indonesia;rsjmenur.jatimprov.go.id;Linux;
09/04/2013;Sheep139;;M;;United States;www.kpu-palopokota.go.id/berit...;Linux;
09/04/2013;ymh;;;;Taiwan;www.htanzi.taichung.gov.tw/tem...;Win 2003;
09/04/2013;RedSpy;H;;;Viet Nam;sonongnghiep.ninhbinh.gov.vn;Linux;
09/04/2013;ArTiN;;M;R;Italy;www.comune.cecina.livorno.it/i...;Win 2003;
09/04/2013;ymh;;;;Taiwan;administration2.hccg.gov.tw/ap...;Win 2000;
09/04/2013;HACKROOT;H;;;United States;www.jacuzzi.com.br;Linux;
09/04/2013;HighTech;;M;;Pakistan;itb.ajk.gov.pk/ck.htm;Win 2003;
09/04/2013;ArTiN;;M;R;Italy;www.comune.genola.cn.it//cgi-b...;Win 2003;
09/04/2013;Hmei7;;M;;Brazil;www.cdv.gov.br/x.txt;Win 2008;
09/04/2013;rooterror;H;M;;Brazil;www.repoa.labomar.ufc.br;Linux;
09/04/2013;TurkHackArmy;;;;Italy;mobilitycenter.comune.padova.i...;Linux;
09/04/2013;Bozkurt97;H;;;Poland;www.wielkopolskie.ksu.parp.gov.pl;Linux;
09/04/2013;ArTiN;;;R;Italy;www.comune.lanciano.chieti.it/...;Win 2003;
09/04/2013;ymh;;;R;Taiwan;www.nfa.gov.tw/main/Content.as...;Win 2008;
09/04/2013;Dark Assassins Cyber Crew;H;M;;Indonesia;www.bakorwilmadiun.jatimprov.g...;Linux;
09/04/2013;Bozkurt97;H;;;Brazil;www.mdcc.ufc.br;Linux;
09/04/2013;Digital Boys Underground Team;H;;;France;mediatheque.ville-grand-quevil...;Win 2003;
09/04/2013;Pargarsoft;;;R;China;www.qgjs.gov.cn/xfgc/show.php?...;Unknown;
09/04/2013;HacKed By LaMiN3 DK;;M;R;Brazil;www.ecivil.ufc.br/images/dz.txt;Linux;
09/04/2013;ZiqoR;H;M;;United States;www.pro5.pnp.gov.ph;Linux;
09/04/2013;ZiqoR;H;M;R;United States;bongabong.gov.ph;Linux;
09/04/2013;ZiqoR;;;;United Kingdom;solidarite.gov.bi/index.php?op...;Linux;
09/04/2013;a.M.e;;;;United States;pa-palembang.go.id/index.php;Unknown;
09/04/2013;9-gate;;;;China;www.xzdf.gov.cn/vote/a/vote1/9...;Win 2003;
09/04/2013;Evil-DZ;;;;Turkey;www.batmansm.gov.tr/x.html;Win 2003;
09/04/2013;Nob0dy;;;R;Indonesia;lh.surabaya.go.id/weblh/;Linux;
09/04/2013;SaccaFrazi;;M;;China;dwgk.xzagri.gov.cn/x.htm;Win 2003;
09/04/2013;Dr.SHA6H;H;;R;Germany;www.cc-veron.fr;Linux;
08/04/2013;skyn3t;H;M;;United States;www.contraloriagirardot-aragua...;Linux;
08/04/2013;SystemX;H;M;;Italy;www.vittorioemanueleterzo.gov.it;Linux;
08/04/2013;Hannibal;H;M;;United States;labs.aljazeera.net;Linux;
08/04/2013;Hannibal;H;;;United States;l3.aljazeerastory.net;Linux;
08/04/2013;HighTech;H;M;;India;www.ksad.kar.nic.in;Win 2008;
08/04/2013;HighTech;H;M;;India;yad.distcourts.kar.nic.in;Win 2008;
08/04/2013;HighTech;H;M;;India;gul.distcourts.kar.nic.in;Win 2008;
08/04/2013;HighTech;H;M;;India;www.stateexcise.kar.nic.in;Win 2008;
08/04/2013;HighTech;H;M;;India;gazetteer.kar.nic.in;Win 2008;
08/04/2013;HighTech;H;M;;India;kol.distcourts.kar.nic.in;Win 2008;
08/04/2013;HighTech;H;M;;India;ckm.distcourts.kar.nic.in;Win 2008;
08/04/2013;HighTech;H;M;;India;cbr.distcourts.kar.nic.in;Win 2008;
08/04/2013;HighTech;H;M;;India;bgk.distcourts.kar.nic.in;Win 2008;
08/04/2013;HighTech;H;M;;India;revenue.kar.nic.in;Win 2008;
08/04/2013;HighTech;H;M;;India;hin.cdarndblr.gov.in;Win 2008;
08/04/2013;HighTech;H;M;;India;www.rcmysore-portal.kar.nic.in;Win 2008;
08/04/2013;HighTech;H;M;;India;bly.distcourts.kar.nic.in;Win 2008;
08/04/2013;HighTech;H;M;;India;ram.distcourts.kar.nic.in;Win 2008;
08/04/2013;HighTech;H;M;;India;cha.distcourts.kar.nic.in;Win 2008;
08/04/2013;HighTech;H;M;;India;kar.distcourts.kar.nic.in;Win 2008;
08/04/2013;HighTech;H;M;;India;mng.distcourts.kar.nic.in;Win 2008;
08/04/2013;HighTech;H;M;;India;udu.distcourts.kar.nic.in;Win 2008;
08/04/2013;HighTech;H;M;;India;hav.distcourts.kar.nic.in;Win 2008;
08/04/2013;HighTech;H;M;;India;www.distcourts.kar.nic.in;Win 2008;
08/04/2013;HighTech;H;M;;India;bij.distcourts.kar.nic.in;Win 2008;
08/04/2013;HighTech;H;M;;India;gad.distcourts.kar.nic.in;Win 2008;
08/04/2013;HighTech;H;M;;India;tum.distcourts.kar.nic.in;Win 2008;
08/04/2013;HighTech;H;M;;India;www.bngu.distcourts.kar.nic.in;Win 2008;
08/04/2013;HighTech;H;M;;India;bgm.distcourts.kar.nic.in;Win 2008;
08/04/2013;HighTech;H;M;;India;www.mys.distcourts.kar.nic.in;Win 2008;
08/04/2013;HighTech;H;M;;India;www.ksczma.kar.nic.in;Win 2008;
08/04/2013;HighTech;H;M;;India;bangalorerural.kar.nic.in;Win 2008;
08/04/2013;HighTech;H;M;;India;rcbangalore.kar.nic.in;Win 2008;
08/04/2013;HighTech;H;M;;India;zpkolar.kar.nic.in;Win 2008;
08/04/2013;HighTech;H;M;;India;www.drugs.kar.nic.in;Win 2008;
08/04/2013;HighTech;H;M;;India;eng.rcbangalore.kar.nic.in;Win 2008;
08/04/2013;HighTech;H;M;;India;kn.welfareofdisabled.kar.nic.in;Win 2008;
08/04/2013;HighTech;H;M;;India;www.legalmetrology.kar.nic.in;Win 2008;
08/04/2013;HighTech;H;M;;India;www.kshrc.kar.nic.in;Win 2008;
08/04/2013;HighTech;H;M;;India;scd.kar.nic.in;Win 2008;
08/04/2013;HighTech;H;M;;India;ksdb.kar.nic.in;Win 2008;
08/04/2013;HighTech;H;M;;India;welfareofdisabled.kar.nic.in;Win 2008;
08/04/2013;HighTech;H;M;;India;planning.kar.nic.in;Win 2008;
08/04/2013;HighTech;H;M;;India;rdpr.kar.nic.in;Win 2008;
08/04/2013;HighTech;H;M;;India;www.kjablr.kar.nic.in;Win 2008;
08/04/2013;HighTech;H;M;;India;has.distcourts.kar.nic.in;Win 2008;
08/04/2013;HighTech;H;M;;India;www.mdy.distcourts.kar.nic.in;Win 2008;
08/04/2013;HighTech;H;M;;India;bid.distcourts.kar.nic.in;Win 2008;
08/04/2013;HighTech;H;M;;India;zpbangalorerural.kar.nic.in;Win 2008;
08/04/2013;HighTech;H;M;;India;advgen.kar.nic.in;Win 2008;
08/04/2013;HighTech;H;M;;India;mad.distcourts.kar.nic.in;Win 2008;
08/04/2013;HighTech;H;M;;India;ctg.distcourts.kar.nic.in;Win 2008;
08/04/2013;HighTech;H;M;;India;dav.distcourts.kar.nic.in;Win 2008;
08/04/2013;HighTech;H;M;;India;dha.distcourts.kar.nic.in;Win 2008;
08/04/2013;HighTech;H;M;;India;shi.distcourts.kar.nic.in;Win 2008;
08/04/2013;HighTech;H;M;;India;kop.distcourts.kar.nic.in;Win 2008;
08/04/2013;HighTech;H;M;;India;rai.distcourts.kar.nic.in;Win 2008;
08/04/2013;HighTech;H;M;;India;bngr.distcourts.kar.nic.in;Win 2008;
08/04/2013;HighTech;H;M;;India;des.kar.nic.in;Win 2008;
08/04/2013;HighTech;H;M;;India;sugars.kar.nic.in;Win 2008;
08/04/2013;HighTech;H;M;;India;kseeb.kar.nic.in;Win 2008;
08/04/2013;Hmei7;;;;Viet Nam;chupuh.gialai.gov.vn/images/x.htm;Win 2008;
08/04/2013;Hmei7;;M;;Thailand;chalermprakiat.nan.police.go.t...;Linux;
08/04/2013;Hmei7;;;;Brazil;www.hias.ce.gov.br/images/x.htm;Linux;
08/04/2013;Hmei7;;;;Paraguay;msnlan.annp.gov.py/images/x.htm;Linux;
08/04/2013;Hmei7;;;;Ecuador;www.infocentros.gob.ec/infocen...;Linux;
08/04/2013;Hmei7;;;R;Spain;cpluischamizozah.juntaextremad...;Linux;
08/04/2013;Hmei7;;;;Thailand;fang.chiangmai.police.go.th/im...;Linux;
08/04/2013;Hmei7;;;R;Ecuador;www.responsabilidadsocial.quit...;Linux;
08/04/2013;Hmei7;;M;;Italy;cresci.regione.veneto.it/x.htm;Linux;
08/04/2013;Hmei7;;;;Netherlands;objekti.skopjeregion.gov.mk/x.htm;Linux;
08/04/2013;D4rkWeaver;;M;;Brazil;dourado.enf.ufmg.br/conflitos/;Linux;
08/04/2013;D4rkWeaver;;;;Brazil;www.enf.ufmg.br/conflitos/;Linux;
08/04/2013;Solt6n;;M;;Brazil;rgo.fmrp.usp.br/onco/solt6n.htm;Linux;
08/04/2013;Solt6n;;M;;Brazil;sistemas.fmrp.usp.br/sau/solt6...;Linux;
08/04/2013;Solt6n;;M;;Italy;pariopportunita.regione.veneto...;Linux;
08/04/2013;Megaturks.com;;M;;Germany;www.arifiyehem.gov.tr/uyari.html;Linux;
08/04/2013;Megaturks.com;;;;Germany;www.adanakhb.gov.tr/uyari.html;Linux;
08/04/2013;Anass Ibn El Farouk;;;;Australia;sakai.unimelb.edu.au/access/co...;Linux;
08/04/2013;Solt6n;;M;;Brazil;gos_pg.fmrp.usp.br/administrat...;Linux;
08/04/2013;Solt6n;;M;;Brazil;cpg.fmrp.usp.br/cutenews/data/...;Linux;
08/04/2013;Solt6n;;M;;Brazil;cap.fmrp.usp.br/media/solt6n.htm;Linux;
08/04/2013;Solt6n;;M;;Brazil;cefisio.fmrp.usp.br/cutenews/d...;Linux;
08/04/2013;Solt6n;;M;;Italy;partenariato.regione.veneto.it...;Linux;
08/04/2013;Solt6n;;M;;Italy;imprenditoriafemminile.regione...;Linux;
08/04/2013;Solt6n;;M;;Italy;reseaux.regione.veneto.it/solt...;Linux;
08/04/2013;Solt6n;;M;;Italy;agora.regione.veneto.it/solt6n...;Linux;
08/04/2013;Solt6n;;M;;Brazil;pgsm.fmrp.usp.br/wp-content/la...;Linux;
08/04/2013;surabayagetar;;M;;Mexico;covep.puebla.gob.mx/info.html;Linux;
08/04/2013;surabayagetar;;M;;Mexico;sc.puebla.gob.mx//info.html;Linux;
08/04/2013;surabayagetar;;M;;Mexico;cemer.pue.gob.mx/info.html;Linux;
08/04/2013;surabayagetar;;M;;Mexico;hnp.pue.gob.mx/info.html;Linux;
08/04/2013;surabayagetar;;M;;Mexico;stc.pue.gob.mx/info.html;Linux;
08/04/2013;c0cain;;;;Italy;venet-energia-edifici.regione....;Linux;
08/04/2013;Ashiyane Digital Security Team;;;R;China;www.youeryuan.gov.cn/hoss.htm;Win 2003;
08/04/2013;Dr.SHA6H;H;;R;Kazakhstan;www.dmpvko.gov.kz;Linux;
07/04/2013;HighTech;;;;Brazil;svoi.fmrp.usp.br/images/ck.htm;Linux;
07/04/2013;HighTech;H;M;;Singapore;coc.dos.gov.bd;FreeBSD;
07/04/2013;HighTech;H;M;;Singapore;society.dos.gov.bd;FreeBSD;
07/04/2013;HighTech;H;M;;Singapore;securities.dos.gov.bd;FreeBSD;
07/04/2013;HighTech;H;M;;Singapore;institute.dos.gov.bd;FreeBSD;
07/04/2013;HighTech;H;;R;Singapore;dos.gov.bd;FreeBSD;
07/04/2013;[IN]SecInjection;;M;R;Mexico;www.issstep.puebla.gob.mx/medi...;Linux;
07/04/2013;[IN]SecInjection;;M;;Mexico;www.contraloria.pue.gob.mx/med...;Linux;
07/04/2013;[IN]SecInjection;;M;;Mexico;www.ippc.pue.gob.mx/media/r.txt;Linux;
07/04/2013;[IN]SecInjection;;M;;Mexico;www.kioscos.pue.gob.mx/media/r...;Linux;
08/04/2013;Solt6n;;M;;Brazil;jornadanutri.fmrp.usp.br/media...;Linux;
08/04/2013;Solt6n;;M;;Brazil;jornal.fmrp.usp.br/rss/solt6n.htm;Linux;
08/04/2013;Solt6n;;M;;Brazil;comissaodepesquisa.fmrp.usp.br...;Linux;
08/04/2013;Solt6n;;M;;Brazil;dcd.fmrp.usp.br/media/solt6n.htm;Linux;
08/04/2013;Solt6n;;M;;Brazil;invernobiocel.fmrp.usp.br/wp-c...;Linux;
08/04/2013;Solt6n;;M;;Brazil;intranet.fmrp.usp.br/media/sol...;Linux;
08/04/2013;Solt6n;;M;;Brazil;napdin_elisa.fmrp.usp.br/media...;Linux;
08/04/2013;Solt6n;;M;;Brazil;cuidadospaliativos_rp.fmrp.usp...;Linux;
08/04/2013;Solt6n;;M;;Brazil;cefono.fmrp.usp.br/congresso/s...;Linux;
08/04/2013;Solt6n;;M;;Brazil;napdin.fmrp.usp.br/media/solt6...;Linux;
07/04/2013;[IN]SecInjection;;M;;Mexico;www.pgj.puebla.gob.mx/media/r.txt;Linux;
07/04/2013;[IN]SecInjection;;M;;Mexico;si.puebla.gob.mx/media/r.txt;Linux;
07/04/2013;[IN]SecInjection;;M;;Mexico;www.secotrade.pue.gob.mx/media...;Linux;
07/04/2013;[IN]SecInjection;;;R;Italy;ncrna.ba.itb.cnr.it/media/r.txt;Linux;
07/04/2013;Maniak k4sur;H;M;;Indonesia;pn-muaraenim.go.id;Linux;
07/04/2013;Ashiyane Digital Security Team;;M;R;China;tez.zzhb.gov.cn/hoss.htm;Win 2003;
07/04/2013;Hmei7;;;;Argentina;www.munilamendieta.gov.ar/x.htm;Linux;
06/04/2013;Hmei7;;;;Argentina;www.casadecatamarca.gov.ar/x.htm;Linux;
06/04/2013;Hmei7;;;R;Indonesia;www.pa-kajen.go.id/x.htm;Linux;
06/04/2013;The GreaT TeAm;H;;R;Libyan Arab Jamahiriya;www.nid.gov.ly;Linux;
06/04/2013;Ashiyane Digital Security Team;;M;R;Thailand;sibanpot.go.th/crypt0.htm;Linux;
06/04/2013;HighTech;H;M;R;India;gokenergy.gov.in;Win 2008;
06/04/2013;Ashiyane Digital Security Team;;;R;Argentina;hcdobera.gov.ar/crypt0.htm;Linux;
06/04/2013;HighTech;H;M;;India;bemltech.nic.in;Win 2008;
06/04/2013;HighTech;H;M;;India;www.bemlindia.nic.in;Win 2008;
06/04/2013;HighTech;H;M;;India;www.bangaloreurban.nic.in;Win 2008;
06/04/2013;HighTech;H;M;;India;ddchandana.gov.in;Win 2008;
06/04/2013;HighTech;H;M;;India;dnhctd.gov.in;Win 2008;
06/04/2013;HighTech;H;M;;India;cicef.gov.in;Win 2008;
06/04/2013;HighTech;H;M;;India;www.nagalandtax.nic.in;Win 2008;
06/04/2013;HighTech;H;M;;India;zotax.nic.in;Win 2008;
06/04/2013;HighTech;H;M;;India;www.aruntax.nic.in;Win 2008;
06/04/2013;HighTech;H;M;;India;www.manipurvat.gov.in;Win 2008;
06/04/2013;HighTech;H;M;;India;ddvat.gov.in;Win 2008;
06/04/2013;HighTech;H;M;;India;www.tripurataxes.nic.in;Win 2008;
06/04/2013;HighTech;H;M;;India;www.kolar.nic.in;Win 2008;
06/04/2013;HighTech;H;M;;India;www.apexhitech.gov.in;Win 2008;
06/04/2013;HighTech;H;M;;India;www.fpibangalore.gov.in;Win 2008;
06/04/2013;HighTech;H;M;;India;cdarndblr.gov.in;Win 2008;
06/04/2013;HighTech;H;M;R;India;agkar.cag.gov.in;Win 2008;
06/04/2013;HighTech;H;M;;India;naac.gov.in;Win 2008;
06/04/2013;Hmei7;;;;India;salcogen.gov.in/x.htm;Win 2008;
06/04/2013;Dr.SHA6H;H;;R;Netherlands;www.xylokastro-evrostini.gov.gr;Linux;
05/04/2013;Hannibal;H;;;United States;www.aljazeerastory.net;Linux;
05/04/2013;SA3D HaCk3D;;;R;China;slj.pinghu.gov.cn/x.txt;Win 2003;
05/04/2013;ghost-dz;;;;Viet Nam;nifc.gov.vn/gh.html;Win 2008;
05/04/2013;Ashiyane Digital Security Team;;;R;China;www.hbswl.gov.cn/hoss.htm;Win 2003;
05/04/2013;SaccaFrazi;H;M;R;Brazil;www.pospsi.ufc.br;Linux;
05/04/2013;SaccaFrazi;H;M;R;Brazil;www.ppgcienciasfarmaceuticas.u...;Linux;
05/04/2013;DZ27;;;;Brazil;cursos.ifsc.usp.br/contador.txt;Linux;
05/04/2013;THE-AjaN;H;;;Indonesia;intranet.un.or.id;Linux;
05/04/2013;THE-AjaN;;M;;India;www.hmr.gov.in/tender.php;Linux;
05/04/2013;Dr.SHA6H;;M;;Poland;krasnystaw.um.gov.pl/strona/;Linux;
05/04/2013;Soly;H;M;;Malaysia;www.phpmysql.kedforestry.gov.my;Linux;
05/04/2013;Soly;H;M;;Malaysia;www.2013.kedforestry.gov.my;Linux;
05/04/2013;Soly;H;;;Malaysia;www.data.kedforestry.gov.my;Linux;
05/04/2013;V1RU54;H;M;R;Indonesia;disbudpar.kalbarprov.go.id;Linux;
05/04/2013;islamic LAMERS team;;M;R;United States;nedco.gov.tt/x.html;Linux;
05/04/2013;ymh;;;;United States;hqbp.gov.sa/viewNews.php?newsI...;Linux;
05/04/2013;ymh;;M;;Taiwan;www.tnsouth.gov.tw/open_conten...;Linux;
05/04/2013;ymh;;;;Taiwan;web.tnsouth.gov.tw/open_conten...;Linux;
05/04/2013;Nob0dy;;;;Venezuela;www.inzit.gob.ve/dotproject/;Linux;
05/04/2013;HighTech;;M;;China;sfxc.gov.cn/index.html;Win 2003;
05/04/2013;HighTech;H;M;;Poland;www.bip.szczecin.kwp.gov.pl;Linux;
05/04/2013;TurkHackArmy;H;;;Peru;centrodemostracion.concytec.go...;Linux;
05/04/2013;Sa-Dz;;M;;Brazil;www.centauro.ufc.br/images/dz.txt;Linux;
05/04/2013;Sejeal;;M;;Italy;www.comune.santafiora.gr.it/se...;Linux;
05/04/2013;bl4ckj4ck;;;;United States;spda.gov.ph/language/;Linux;
05/04/2013;ZiqoR;H;M;;Turkey;www.karsshcek.gov.tr;Linux;
05/04/2013;Archive;H;;R;China;www.xcxjsj.gov.cn;Win 2003;
05/04/2013;MJHOOL-HKR;;M;;Malaysia;estandard.kpdnkk.gov.my//images/;Linux;
05/04/2013;jh0nyrams0y;;;R;China;www.fpa.gov.cn/zx.txt;Win 2003;
05/04/2013;TurkeySecurity;;M;R;United States;www.tira.go.tz/about_us/establ...;Linux;
05/04/2013;HighTech;;M;;Thailand;osaka.boi.go.th/index.html;Linux;
05/04/2013;HighTech;;M;;Thailand;korat.boi.go.th/index.html;Linux;
05/04/2013;HighTech;;M;;Thailand;doctracking.boi.go.th/index.html;Linux;
05/04/2013;blackvenom;;M;;Indonesia;dispertan.pasuruankab.go.id/bv...;Linux;
05/04/2013;blackvenom;;M;;Indonesia;kppp.pasuruankab.go.id/bv.php;Linux;
05/04/2013;blackvenom;;M;;Indonesia;ciptakarya.pasuruankab.go.id/b...;Linux;
05/04/2013;blackvenom;;M;;Indonesia;pandaan.pasuruankab.go.id/bv.php;Linux;
05/04/2013;blackvenom;;M;;Indonesia;bagorgan.pasuruankab.go.id/bv.php;Linux;
05/04/2013;blackvenom;;M;;Indonesia;bpbd.pasuruankab.go.id/bv.php;Linux;
05/04/2013;HighTech;;M;;Thailand;ns.boi.go.th/index.html;Win 2003;
05/04/2013;HighTech;;M;;Thailand;boiweb00.boi.go.th/index.html;Win 2003;
05/04/2013;HighTech;;;;Thailand;old.boi.go.th/index.html;Win 2003;
05/04/2013;HighTech;;;;Brazil;controlesocial.saude.sc.gov.br...;Linux;
05/04/2013;RainsevenDotMy;;;R;Brazil;www.caema.ma.gov.br/portalcaema/;Linux;
05/04/2013;AHT-CREW;;M;R;Turkey;www.oeah.gov.tr/security/;Linux;
05/04/2013;AHT-CREW;;M;R;Turkey;www.suluovadh.gov.tr/security/;Linux;
05/04/2013;AHT-CREW;;M;R;Turkey;www.nazilliadsm.gov.tr/security/;Linux;
05/04/2013;AHT-CREW;;M;;Turkey;secure.kangaldh.gov.tr/securit...;Linux;
05/04/2013;AHT-CREW;;M;R;Turkey;kangaldh.gov.tr/security/;Linux;
05/04/2013;AHT-CREW;;M;;Turkey;elmadagdh.gov.tr/security/;Linux;
05/04/2013;AHT-CREW;;;R;Turkey;www.amasyadhs.gov.tr/security/;Linux;
05/04/2013;Index Php;;M;;Mexico;www.secotrade.puebla.gob.mx/in...;Linux;
05/04/2013;Index Php;;M;;Mexico;www.cappc.pue.gob.mx/index_.php;Linux;
05/04/2013;Index Php;;M;;Mexico;www.ssaot.puebla.gob.mx/index_...;Linux;
05/04/2013;Index Php;;M;;Mexico;www.hnp.puebla.gob.mx/index_.php;Linux;
05/04/2013;Index Php;;M;;Mexico;www.sdr.pue.gob.mx/index_.php;Linux;
05/04/2013;Index Php;;M;;Mexico;www.capcee.pue.gob.mx/index_.php;Linux;
05/04/2013;Index Php;;M;;Mexico;www.ceaspue.puebla.gob.mx/inde...;Linux;
05/04/2013;Index Php;;M;;Mexico;www.ipm.pue.gob.mx/index_.php;Linux;
05/04/2013;Index Php;;M;;Mexico;www.edni.puebla.gob.mx/index_.php;Linux;
05/04/2013;Index Php;;M;;Mexico;www.ccp.puebla.gob.mx/index_.php;Linux;
05/04/2013;Index Php;;M;;Mexico;www.iap.pue.gob.mx/index_.php;Linux;
05/04/2013;Index Php;;M;;Mexico;www.cemer.puebla.gob.mx/index_...;Linux;
05/04/2013;Index Php;;M;;Mexico;www.concytep.puebla.gob.mx/ind...;Linux;
05/04/2013;Index Php;;M;;Mexico;www.consejo.pue.gob.mx/index_.php;Linux;
05/04/2013;Index Php;;M;;Mexico;www.ipm.puebla.gob.mx/index_.php;Linux;
05/04/2013;Index Php;;M;;Mexico;www.acuerdonacionalseguridad.p...;Linux;
05/04/2013;Index Php;;M;;Mexico;www.ipj.pue.gob.mx/index_.php;Linux;
05/04/2013;Index Php;;M;;Mexico;fprtaq.pue.gob.mx/index_.php;Linux;
05/04/2013;Index Php;;M;;Mexico;coespo.pue.gob.mx/index_.php;Linux;
05/04/2013;Index Php;;M;;Mexico;ssp.pue.gob.mx/index_.php;Linux;
05/04/2013;Index Php;;M;;Mexico;sf.pue.gob.mx/index_.php;Linux;
05/04/2013;Index Php;;M;;Mexico;ceaspue.pue.gob.mx/index_.php;Linux;
05/04/2013;Index Php;;M;;Mexico;dtit.puebla.gob.mx/index_.php;Linux;
05/04/2013;Index Php;;M;;Mexico;secturep.pue.gob.mx/index_.php;Linux;
04/04/2013;srabithail;H;;R;United States;www.dwss.gov.np;Linux;
04/04/2013;TurkeySecurity;H;M;;United States;www.taesa.go.tz;Linux;
04/04/2013;jh0nyrams0y;;M;;China;stz.beibei.gov.cn/1z3.txt;F5 Big-IP;
04/04/2013;F15;;M;R;Saudi Arabia;swcc1.gov.sa/Anti-Saudiz.html;Win 2008;
04/04/2013;Antonio Hacker Sakit Hati;H;M;R;Indonesia;kec-karangjati.ngawikab.go.id;Linux;
04/04/2013;ymh;;;;Taiwan;www.tungshih-nursery.taichung....;Win 2003;
04/04/2013;Mr-ADeL;;;;France;www.mairie-balleroy.fr/dz.txt;Linux;
04/04/2013;HighTech;H;M;;Brazil;www.cadernos.ecologia.furg.br;Linux;
04/04/2013;blackvenom;;M;R;Indonesia;wonorejo.pasuruankab.go.id/bv.php;Linux;
04/04/2013;blackvenom;;M;R;Indonesia;gondangwetan.pasuruankab.go.id...;Linux;
04/04/2013;blackvenom;;M;R;Indonesia;winongan.pasuruankab.go.id/bv.php;Linux;
04/04/2013;blackvenom;;M;R;Indonesia;puspo.pasuruankab.go.id/bv.php;Linux;
04/04/2013;blackvenom;;M;R;Indonesia;pasrepan.pasuruankab.go.id/bv.php;Linux;
04/04/2013;blackvenom;;M;R;Indonesia;prigen.pasuruankab.go.id/bv.php;Linux;
04/04/2013;blackvenom;;M;R;Indonesia;purwodadi.pasuruankab.go.id/bv...;Linux;
04/04/2013;blackvenom;;M;R;Indonesia;gempol.pasuruankab.go.id/bv.php;Linux;
04/04/2013;blackvenom;;M;R;Indonesia;sukorejo.pasuruankab.go.id/bv.php;Linux;
04/04/2013;blackvenom;;;R;Indonesia;tutur.pasuruankab.go.id/bv.php;Linux;
04/04/2013;nO lOv3;H;;;Thailand;uthaicity.go.th;Linux;
04/04/2013;Solt6n;;M;R;Viet Nam;ktxh.bacgiang.gov.vn/solt6n.htm;Win 2003;
04/04/2013;Solt6n;;M;R;Viet Nam;baucu.bacgiang.gov.vn/solt6n.htm;Win 2003;
04/04/2013;Solt6n;;M;R;Viet Nam;stp.bacgiang.gov.vn/solt6n.htm;Win 2003;
04/04/2013;Solt6n;;M;R;Viet Nam;lucngan.bacgiang.gov.vn/solt6n...;Win 2003;
04/04/2013;Solt6n;;M;R;Viet Nam;baovetreem.bacgiang.gov.vn/sol...;Win 2003;
04/04/2013;HighTech;;;R;Viet Nam;cungungnhanluc.bacgiang.gov.vn...;Win 2003;
04/04/2013;ghost-dz;;;R;Kenya;www.industrialization.go.ke/gh...;Linux;
04/04/2013;Index Php;;M;R;Mexico;icatep.puebla.gob.mx/index_.php;Linux;
04/04/2013;Index Php;;M;R;Mexico;www.inpode.pue.gob.mx/index_.php;Linux;
04/04/2013;Index Php;;M;R;Mexico;coespo.puebla.gob.mx/index_.php;Linux;
04/04/2013;Index Php;;;R;Mexico;icatep.pue.gob.mx/index_.php;Linux;
04/04/2013;IR4DEX;H;;R;Bangladesh;infokosh.bangladesh.gov.bd;Linux;
04/04/2013;jh0nyrams0y;;M;R;China;edu.cqdx.gov.cn/1z3.txt;Win 2003;
04/04/2013;d3str0yers;H;M;R;United States;eltigre.gob.ve;Linux;
04/04/2013;d3str0yers;H;M;R;United States;bomberoslimon.gob.ec;Linux;
04/04/2013;THE-AjaN;;M;;Turkey;www.vezirkoprukutup.gov.tr/Aja...;Win 2003;
04/04/2013;dvildance;;M;;Indonesia;kt-jateng.kejaksaan.go.id/main...;Linux;
04/04/2013;iXiR;;M;R;United States;vpo.go.tz/about_us/;Linux;
04/04/2013;ymh;H;M;;Taiwan;motech2012.nstm.gov.tw;Win 2003;
04/04/2013;ymh;;;R;Taiwan;www.yangmei.gov.tw/newsview.ph...;Win 2008;
04/04/2013;HacKed By LaMiN3 DK;H;M;;Portugal;srtt.gov-madeira.pt;Linux;
04/04/2013;ErtuğrulGazi;H;;R;Colombia;www.invima.gov.co;Linux;
04/04/2013;TurkeySecurity;H;M;R;United States;jfc.go.tz;Linux;
04/04/2013;d3str0yers;H;M;R;Spain;www.supraragua.gob.ve;Linux;
04/04/2013;ifactoryx;H;;;Turkey;www.esm.gov.tr;Win 2008;
04/04/2013;DZ27;H;M;R;Zambia;www.moh.gov.zm;Unknown;
04/04/2013;Dr.SHA6H;H;;;United States;correo.desarrollosocial.gob.hn;Unknown;
04/04/2013;redMin;;M;R;Turkey;www.bakirkoykutup.gov.tr/hacke...;Win 2003;
04/04/2013;Anonymous Algeria;;;R;Turkey;www.corumdefterdarligi.gov.tr/...;Win 2008;
04/04/2013;HighTech;;;R;Viet Nam;qlvbchonthanh.binhphuoc.gov.vn...;Win 2003;
04/04/2013;ymh;;;;Taiwan;friap.moeasmea.gov.tw/yemen.htm;F5 Big-IP;
04/04/2013;ymh;;;R;Taiwan;express.culture.gov.tw/en/even...;Linux;
04/04/2013;CaZaNoVa163;H;M;;United States;ww2.susapaya.gob.pe;Linux;
04/04/2013;TurkeySecurity;H;M;;United States;karagwedc.go.tz;Linux;
04/04/2013;TurkeySecurity;;M;;United States;www.morogoromc.go.tz/news_even...;Linux;
04/04/2013;VirusDuba;H;;;Viet Nam;beta.bhxhbrvt.gov.vn;Linux;
04/04/2013;brwsk007;;;R;Viet Nam;www.eza-binhphuoc.gov.vn/data/...;Win 2003;
04/04/2013;brwsk007;;;R;China;www.xjcjfy.gov.cn/NewsImage/50...;Win 2003;
04/04/2013;brwsk007;;;;China;spaq.songjiang.gov.cn/z_Admin/...;Win 2003;
04/04/2013;brwsk007;;M;;China;qdx.songjiang.gov.cn/505.txt;Win 2003;
04/04/2013;brwsk007;;M;;China;gaj.songjiang.gov.cn/505.txt;Win 2003;
04/04/2013;brwsk007;;M;;China;tzb.songjiang.gov.cn/505.txt;Win 2003;
04/04/2013;brwsk007;;M;;China;wsft.songjiang.gov.cn/505.txt;Win 2003;
04/04/2013;brwsk007;;M;;China;ss.songjiang.gov.cn/505.txt;Win 2003;
04/04/2013;brwsk007;;M;;China;ly.songjiang.gov.cn/505.txt;Win 2003;
04/04/2013;brwsk007;;M;;China;sjwg.songjiang.gov.cn/505.txt;Win 2003;
04/04/2013;brwsk007;;M;;China;police.lijin.gov.cn/images/505...;Win 2003;
04/04/2013;brwsk007;;M;R;China;fda.lijin.gov.cn/images/505.txt;Win 2003;
04/04/2013;brwsk007;;;;China;www.ljmsw.gov.cn/images/505.txt;Win 2003;
04/04/2013;RedDeviL;;M;;United States;topaxi.gobernacioncotopaxi.gob...;Linux;
04/04/2013;RedDeviL;;M;;United States;gober.gobernacioncotopaxi.gob....;Linux;
04/04/2013;RedDeviL;H;;;United States;ww.gobernacioncotopaxi.gob.ec;Linux;
04/04/2013;ymh;;;;Egypt;qizegypt.gov.eg/Yemen.htm;Win 2003;
03/04/2013;brwsk007;;M;;China;www.tjhdbb.gov.cn/505.txt;Win 2003;
03/04/2013;brwsk007;;;R;China;www.tjhdhr.gov.cn/505.txt;Win 2003;
03/04/2013;SA3D HaCk3D;;;R;China;www.xyshdj.gov.cn/x.txt;Win 2003;
03/04/2013;brwsk007;;M;R;China;webrobot.songjiang.gov.cn/505.txt;Win 2003;
03/04/2013;brwsk007;;M;R;China;daj.songjiang.gov.cn/505.txt;Win 2003;
03/04/2013;brwsk007;;M;R;China;en.songjiang.gov.cn/505.txt;Win 2003;
03/04/2013;brwsk007;;M;R;China;gsj.songjiang.gov.cn/505.txt;Win 2003;
03/04/2013;brwsk007;;M;R;China;hjjc.songjiang.gov.cn/505.txt;Win 2003;
03/04/2013;brwsk007;;M;R;China;sjkw.songjiang.gov.cn/505.txt;Win 2003;
03/04/2013;brwsk007;;M;R;China;wm.songjiang.gov.cn/505.txt;Win 2003;
03/04/2013;brwsk007;;M;R;China;djzdzb.songjiang.gov.cn/505.txt;Win 2003;
03/04/2013;brwsk007;;M;R;China;dj.sjiz.songjiang.gov.cn/505.txt;Win 2003;
03/04/2013;brwsk007;;M;R;China;ytc.songjiang.gov.cn/505.txt;Win 2003;
03/04/2013;brwsk007;;M;R;China;www.sjpop.gov.cn/505.txt;Win 2003;
03/04/2013;brwsk007;;M;R;China;lhsr.songjiang.gov.cn/505.txt;Win 2003;
03/04/2013;brwsk007;;M;R;China;tx.songjiang.gov.cn/505.txt;Win 2003;
03/04/2013;brwsk007;;M;R;China;gh.sjiz.songjiang.gov.cn/505.txt;Win 2003;
03/04/2013;brwsk007;;M;R;China;sjiz.songjiang.gov.cn/505.txt;Win 2003;
03/04/2013;brwsk007;;M;R;China;tw.sjiz.songjiang.gov.cn/505.txt;Win 2003;
03/04/2013;brwsk007;;M;R;China;wg.songjiang.gov.cn/505.txt;Win 2003;
